{
	"ImportPath": "bitbucket.org/taelliot/hello-world",
	"GoVersion": "go1.7",
	"GodepVersion": "v74",
	"Packages": [
		"./..."
	],
	"Deps": [
		{
			"ImportPath": "github.com/beorn7/perks/quantile",
			"Rev": "4c0e84591b9aa9e6dcfdf3e020114cd81f89d5f9"
		},
		{
			"ImportPath": "github.com/golang/protobuf/proto",
			"Rev": "1f49d83d9aa00e6ce4fc8258c71cc7786aec968a"
		},
		{
			"ImportPath": "github.com/gorilla/mux",
			"Comment": "v1.1-25-g0a192a1",
			"Rev": "0a192a193177452756c362c20087ddafcf6829c4"
		},
		{
			"ImportPath": "github.com/matttproud/golang_protobuf_extensions/pbutil",
			"Comment": "v1.0.0-2-gc12348c",
			"Rev": "c12348ce28de40eed0136aa2b644d0ee0650e56c"
		},
		{
			"ImportPath": "github.com/prometheus/client_golang/prometheus",
			"Comment": "v0.8.0-7-g5636dc6",
			"Rev": "5636dc67ae776adf5590da7349e70fbb9559972d"
		},
		{
			"ImportPath": "github.com/prometheus/client_model/go",
			"Comment": "model-0.0.2-12-gfa8ad6f",
			"Rev": "fa8ad6fec33561be4280a8f0514318c79d7f6cb6"
		},
		{
			"ImportPath": "github.com/prometheus/common/expfmt",
			"Rev": "9a94032291f2192936512bab367bc45e77990d6a"
		},
		{
			"ImportPath": "github.com/prometheus/common/internal/bitbucket.org/ww/goautoneg",
			"Rev": "9a94032291f2192936512bab367bc45e77990d6a"
		},
		{
			"ImportPath": "github.com/prometheus/common/model",
			"Rev": "9a94032291f2192936512bab367bc45e77990d6a"
		},
		{
			"ImportPath": "github.com/prometheus/procfs",
			"Rev": "abf152e5f3e97f2fafac028d2cc06c1feb87ffa5"
		}
	]
}
